CONTAINER dl_box_noise
{
	NAME dl_box_noise;

	GROUP SHADER_GROUP
	{	
		COLUMNS 2;


		REAL BOX_NOISE_SCALE{SCALE_H;MIN 0;MINSLIDER 0; MAXSLIDER 1; STEP 0.01; CUSTOMGUI REALSLIDER;}
		SHADERLINK BOX_NOISE_SCALE_SHADER{ANIM OFF;HIDDEN;}
		SHADERLINK BOX_NOISE_SCALE_SHADER_TEMP{ANIM OFF;HIDDEN;}
		POPUP POPUP_BOX_NOISE_SCALE{SCALE_V;}

		REAL BOX_NOISE_SMOOTHNESS{SCALE_H;MIN 0;MINSLIDER 0; MAXSLIDER 1; STEP 0.01; CUSTOMGUI REALSLIDER;}
		SHADERLINK BOX_NOISE_SMOOTHNESS_SHADER{ANIM OFF;HIDDEN;}
		SHADERLINK BOX_NOISE_SMOOTHNESS_SHADER_TEMP{ANIM OFF;HIDDEN;}
		POPUP POPUP_BOX_NOISE_SMOOTHNESS{SCALE_V;}

		REAL BOX_NOISE_TIME{SCALE_H;MIN 0;MINSLIDER 0; MAXSLIDER 1; STEP 0.01; CUSTOMGUI REALSLIDER;}
		SHADERLINK BOX_NOISE_TIME_SHADER{ANIM OFF;HIDDEN;}
		SHADERLINK BOX_NOISE_TIME_SHADER_TEMP{ANIM OFF;HIDDEN;}
		POPUP POPUP_BOX_NOISE_TIME{SCALE_V;}
		
		
		LONG BOX_NOISE_SPACE
		{
			SCALE_H;
			CYCLE
			{
				BOX_NOISE_SPACE_WORLD;
				BOX_NOISE_SPACE_OBJECT;
			}
		}
		SEPARATOR{}

		GROUP
		{	
			COLUMNS 2;
			STATICTEXT{}
			STATICTEXT{}
			SEPARATOR BOX_NOISE_COLOR_GROUP{}
			STATICTEXT{}	
		}
		
		LONG BOX_NOISE_COLOR_BLEND
		{
			SCALE_H;
			CYCLE
			{
				BOX_NOISE_COLOR_BLEND_ADD;
				BOX_NOISE_COLOR_BLEND_LIGHTEN;
				BOX_NOISE_COLOR_BLEND_MULTIPLY;
				BOX_NOISE_COLOR_BLEND_DARKEN;
				BOX_NOISE_COLOR_BLEND_OVERLAY;
				BOX_NOISE_COLOR_BLEND_DIFFERENCE;
			}
		}
		SEPARATOR{}
				
		GRADIENT BOX_NOISE_GRADIENT_COLOR {COLOR;SCALE_H;}
		SEPARATOR{}

		
		GROUP
		{	
			COLUMNS 2;
			STATICTEXT{}
			STATICTEXT{}
			SEPARATOR BOX_NOISE_DISTORTION_GROUP{}
			STATICTEXT{}	
		}
		

		REAL BOX_NOISE_DISTORTION{SCALE_H;MIN 0; MINSLIDER 0; MAXSLIDER 1; STEP 0.01; CUSTOMGUI REALSLIDER;}
		SHADERLINK BOX_NOISE_DISTORTION_SHADER{ANIM OFF;HIDDEN;}
		SHADERLINK BOX_NOISE_DISTORTION_SHADER_TEMP{ANIM OFF;HIDDEN;}
		POPUP POPUP_BOX_NOISE_DISTORTION{SCALE_V;}

		REAL BOX_NOISE_DISTORTION_INTENSITY{SCALE_H;MIN 0;MINSLIDER 0; MAXSLIDER 1; STEP 0.01; CUSTOMGUI REALSLIDER;}
		SHADERLINK BOX_NOISE_DISTORTION_INTENSITY_SHADER{ANIM OFF;HIDDEN;}
		POPUP POPUP_BOX_NOISE_DISTORTION_INTENSITY{SCALE_V;}


		GROUP
		{	
			COLUMNS 2;
			STATICTEXT{}
			STATICTEXT{}
			SEPARATOR BOX_NOISE_LAYERS_GROUP{}
			STATICTEXT{}	
		}
		
		
		LONG BOX_NOISE_LAYERS{SCALE_H;MIN 1;}
		STATICTEXT{}
			
		REAL BOX_NOISE_LAYERS_PERSISTENCE{SCALE_H;MIN 0; MINSLIDER 0; MAXSLIDER 10; STEP 0.1; CUSTOMGUI REALSLIDER;}
		SHADERLINK BOX_NOISE_LAYERS_PERSISTENCE_SHADER{ANIM OFF;HIDDEN;}
		SHADERLINK BOX_NOISE_LAYERS_PERSISTENCE_SHADER_TEMP{ANIM OFF;HIDDEN;}
		POPUP POPUP_BOX_NOISE_LAYERS_PERSISTENCE{SCALE_V;}
		
		REAL BOX_NOISE_LAYERS_SCALE{SCALE_H;MIN 0; MINSLIDER 0; MAXSLIDER 10; STEP 0.1; CUSTOMGUI REALSLIDER;}
		SHADERLINK BOX_NOISE_LAYERS_SCALE_SHADER{ANIM OFF;HIDDEN;}
		SHADERLINK BOX_NOISE_LAYERS_SCALE_SHADER_TEMP{ANIM OFF;HIDDEN;}
		POPUP POPUP_BOX_NOISE_LAYERS_SCALE{SCALE_V;}
		
		
		GROUP
		{	
			COLUMNS 2;
			STATICTEXT{}
			STATICTEXT{}
			SEPARATOR BOX_NOISE_ADJUST_GROUP{}
			STATICTEXT{}	
		}
			
		BOOL BOX_NOISE_ADJUST_INVERT{SCALE_H;}
		STATICTEXT{}	

		REAL BOX_NOISE_ADJUST_AMPLITUDE{SCALE_H;MIN 0; MINSLIDER 0; MAXSLIDER 10; STEP 0.1; CUSTOMGUI REALSLIDER;}
		SHADERLINK BOX_NOISE_ADJUST_AMPLITUDE_SHADER{ANIM OFF;HIDDEN;}
		SHADERLINK BOX_NOISE_ADJUST_AMPLITUDE_SHADER_TEMP{ANIM OFF;HIDDEN;}
		POPUP POPUP_BOX_NOISE_ADJUST_AMPLITUDE{SCALE_V;}
		
		REAL BOX_NOISE_ADJUST_CONTRAST{SCALE_H;MIN 0; MINSLIDER 0; MAXSLIDER 10; STEP 0.1; CUSTOMGUI REALSLIDER;}
		SHADERLINK BOX_NOISE_ADJUST_CONTRAST_SHADER{ANIM OFF;HIDDEN;}
		SHADERLINK BOX_NOISE_ADJUST_CONTRAST_SHADER_TEMP{ANIM OFF;HIDDEN;}
		POPUP POPUP_BOX_NOISE_ADJUST_CONTRAST{SCALE_V;}	
		
	}
}

