CONTAINER dl_distance_fade
{
	NAME dl_distance_fade;

	GROUP SHADER_GROUP
	{
		SEPARATOR{LINE;}	
		GROUP
		{
			
			COLUMNS 2;
			SEPARATOR DISTANCE_FADE{SCALE_H;}
			STATICTEXT{}
			
			REAL MINIMUM_DISTANCE{SCALE_H; MINSLIDER 0; MAXSLIDER 10; STEP 0.01; CUSTOMGUI REALSLIDER;}
			SHADERLINK MINIMUM_DISTANCE_SHADER{ANIM OFF;HIDDEN;}
			SHADERLINK MINIMUM_DISTANCE_SHADER_TEMP{ANIM OFF;HIDDEN;}
			POPUP POPUP_MINIMUM_DISTANCE{SCALE_V;}

			REAL MAXIMUM_DISTANCE{SCALE_H; MINSLIDER 0; MAXSLIDER 10; STEP 0.01; CUSTOMGUI REALSLIDER;}
			SHADERLINK MAXIMUM_DISTANCE_SHADER{ANIM OFF;HIDDEN;}
			SHADERLINK MAXIMUM_DISTANCE_SHADER_TEMP{ANIM OFF;HIDDEN;}
			POPUP POPUP_MAXIMUM_DISTANCE{SCALE_V;}

			SPLINE FADE_CURVE
			{
			  SHOWGRID_H;
			  SHOWGRID_V;
			  EDIT_H;
			  EDIT_V;
			  NO_FLOATING_WINDOW;
			}
			STATICTEXT{}
			
			REAL FOLLOW_CAM_FOV{SCALE_H; MIN 0; MAX 1; MINSLIDER 0; MAXSLIDER 1; STEP 0.01; CUSTOMGUI REALSLIDER;}
			SHADERLINK FOLLOW_CAM_FOV_SHADER{ANIM OFF;HIDDEN;}
			SHADERLINK FOLLOW_CAM_FOV_SHADER_TEMP{ANIM OFF;HIDDEN;}
			POPUP POPUP_FOLLOW_CAM_FOV{SCALE_V;}
		}
	}
}

