CONTAINER dl_facing_ratio
{
	NAME dl_facing_ratio;

	GROUP FACING_RATIO
	{
		COLUMNS 2;

		COLOR FACING_RATIO_COLOR_EDGE{SCALE_H;}
		SHADERLINK FACING_RATIO_COLOR_EDGE_SHADER{SCALE_H;ANIM OFF;HIDDEN;}
		SHADERLINK FACING_RATIO_COLOR_EDGE_SHADER_TEMP{SCALE_H;ANIM OFF;HIDDEN;}
		POPUP POPUP_FACING_RATIO_COLOR_EDGE{SCALE_V;}
		
		COLOR FACING_RATIO_COLOR_CENTER{SCALE_H;}
		SHADERLINK FACING_RATIO_COLOR_CENTER_SHADER{SCALE_H;ANIM OFF;HIDDEN;}
		SHADERLINK FACING_RATIO_COLOR_CENTER_SHADER_TEMP{SCALE_H;ANIM OFF;HIDDEN;}
		POPUP POPUP_FACING_RATIO_COLOR_CENTER{SCALE_V;}
		
		REAL FACING_RATIO_BIAS{SCALE_H;}
		SHADERLINK FACING_RATIO_BIAS_SHADER{SCALE_H;ANIM OFF;HIDDEN;}
		SHADERLINK FACING_RATIO_BIAS_SHADER_TEMP{SCALE_H;ANIM OFF;HIDDEN;}
		POPUP POPUP_FACING_RATIO_BIAS{SCALE_V;}
		
		REAL FACING_RATIO_CONTRAST{SCALE_H;}
		SHADERLINK FACING_RATIO_CONTRAST_SHADER{SCALE_H;ANIM OFF;HIDDEN;}
		SHADERLINK FACING_RATIO_CONTRAST_SHADER_TEMP{SCALE_H;ANIM OFF;HIDDEN;}
		POPUP POPUP_FACING_RATIO_CONTRAST{SCALE_V;}
		
	
		STATICTEXT{}
		STATICTEXT{}

		SEPARATOR BUMP_PAGE{}
		STATICTEXT{}
	
		LONG BUMP_TYPE
		{
			CYCLE
			{
				BUMP_MAP;
				NORMAL_MAP_DIRECTX;
				NORMAL_MAP_OPENGL;
				DISPLACEMENT_0;
				DISPLACEMENT_5;
			}
		}
		SEPARATOR{}
		SHADERLINK BUMP_VALUE{ANIM OFF;}
		SEPARATOR {}
		REAL BUMP_INTENSITY{MINSLIDER 0; MAXSLIDER 10; CUSTOMGUI REALSLIDER;}
		
	}
}