CONTAINER dl_glass
{
	NAME dl_glass;
	
	INCLUDE Mpreview;
	INCLUDE Mbase;
	
	GROUP Obaselist
	{
		BOOL GLASS_MATERIAL_PAGE { HIDDEN; PAGE; PARENTMSG GLASS_MATERIAL; }
	}
	
	GROUP GLASS_MATERIAL
	{
		SEPARATOR {LINE;}
		GROUP
		{
		
			COLUMNS 2;
			SEPARATOR REFLECTION{SCALE_H;}
			STATICTEXT{}
			
			
			COLOR REFLECTION_COLOR{SCALE_H;}
			SHADERLINK REFLECTION_COLOR_SHADER{SCALE_H;ANIM OFF;HIDDEN;}
			SHADERLINK REFLECTION_COLOR_SHADER_TEMP{ANIM OFF;HIDDEN;}
			POPUP POPUP_REFLECTION_COLOR{SCALE_V;}


			REAL REFLECTION_ROUGHNESS{SCALE_H;MIN 0; MAX 1; MINSLIDER 0; MAXSLIDER 1; STEP 0.001; CUSTOMGUI REALSLIDER;}
			SHADERLINK REFLECTION_ROUGHNESS_SHADER{SCALE_H;ANIM OFF;HIDDEN;}
			SHADERLINK REFLECTION_ROUGHNESS_SHADER_TEMP{ANIM OFF;HIDDEN;}
			POPUP POPUP_REFLECTION_ROUGHNESS{SCALE_V;}

			REAL REFLECTION_IOR{SCALE_H;MIN 0; MAX 100; MINSLIDER 0; MAXSLIDER 10; STEP 0.001; CUSTOMGUI REALSLIDER;}
			SHADERLINK REFLECTION_IOR_SHADER{SCALE_H;ANIM OFF;HIDDEN;}
			SHADERLINK REFLECTION_IOR_SHADER_TEMP{ANIM OFF;HIDDEN;}
			POPUP POPUP_REFLECTION_IOR{SCALE_V;}
			
			BOOL REFLECTION_THIN_FILM{FIT_H;}
			SEPARATOR{} 
				
			REAL REFLECTION_FILM_THICKNESS{SCALE_H;MIN 0; MAX 100; MINSLIDER 1; MAXSLIDER 10; STEP 0.001; CUSTOMGUI REALSLIDER;}
			SHADERLINK REFLECTION_FILM_THICKNESS_SHADER{SCALE_H;ANIM OFF;HIDDEN;}
			SHADERLINK REFLECTION_FILM_THICKNESS_SHADER_TEMP{ANIM OFF;HIDDEN;}
			POPUP POPUP_REFLECTION_FILM_THICKNESS{SCALE_V;}
			
			REAL REFLECTION_FILM_IOR{SCALE_H;MIN 0; MAX 10; MINSLIDER 1; MAXSLIDER 10; STEP 0.001; CUSTOMGUI REALSLIDER;}
			SHADERLINK REFLECTION_FILM_IOR_SHADER{SCALE_H;ANIM OFF;HIDDEN;}	
			SHADERLINK REFLECTION_FILM_IOR_SHADER_TEMP{ANIM OFF;HIDDEN;}	
			POPUP POPUP_REFLECTION_FILM_IOR{SCALE_V;}
			
			
			STATICTEXT{SCALE_H;}
			STATICTEXT{}
			SEPARATOR REFRACTION{SCALE_H;}
			STATICTEXT{}
			
		
			COLOR REFRACTION_COLOR{SCALE_H;}
			SHADERLINK REFRACTION_COLOR_SHADER{SCALE_H;ANIM OFF;HIDDEN;}
			SHADERLINK REFRACTION_COLOR_SHADER_TEMP{ANIM OFF;HIDDEN;}
			POPUP POPUP_REFRACTION_COLOR{SCALE_V;}

			REAL REFRACTION_ROUGHNESS{SCALE_H;MIN 0; MAX 1; MINSLIDER 0; MAXSLIDER 1; STEP 0.001; CUSTOMGUI REALSLIDER;}
			SHADERLINK REFRACTION_ROUGHNESS_SHADER{SCALE_H;ANIM OFF;HIDDEN;}
			SHADERLINK REFRACTION_ROUGHNESS_SHADER_TEMP{ANIM OFF;HIDDEN;}
			POPUP POPUP_REFRACTION_ROUGHNESS{SCALE_V;}
			
			REAL REFRACTION_IOR{SCALE_H;MIN 0; MINSLIDER 0; MAXSLIDER 50; STEP 0.001; CUSTOMGUI REALSLIDER;}
			SHADERLINK REFRACTION_IOR_SHADER{SCALE_H;ANIM OFF;HIDDEN;}
			SHADERLINK REFRACTION_IOR_SHADER_TEMP{ANIM OFF;HIDDEN;}
			POPUP POPUP_REFRACTION_IOR{SCALE_V;}
		
			
			STATICTEXT{SCALE_H;}
			STATICTEXT{}
			SEPARATOR VOLUMETRIC{SCALE_H;}
			STATICTEXT{}
			
			
			BOOL VOLUMETRIC_ENABLE{}
			SEPARATOR{}
			
			REAL VOLUMETRIC_DENSITY{SCALE_H;}
			SEPARATOR{}
			
			COLOR VOLUMETRIC_SCATTERING{ANIM OFF;}
			SEPARATOR{}
			
			COLOR VOLUMETRIC_TRANSPARENCY{ANIM OFF;}
			SEPARATOR{}
			
					
			GROUP 
			{			
				COLUMNS 2;
				STATICTEXT{SCALE_H;}
				STATICTEXT{}
				SEPARATOR INCANDESCENCE{SCALE_H;}
				STATICTEXT{}

				
				COLOR INCANDESCENCE_COLOR{}
				SHADERLINK INCANDESCENCE_COLOR_SHADER{ANIM OFF;HIDDEN;}
				SHADERLINK INCANDESCENCE_COLOR_SHADER_TEMP{ANIM OFF;HIDDEN;}
				POPUP POPUP_INCANDESCENCE_COLOR{SCALE_V;}

				REAL INCANDESCENCE_INTENSITY{SCALE_H;MIN 0; MINSLIDER 0	; MAXSLIDER 100; STEP 1; CUSTOMGUI REALSLIDER;}
				SEPARATOR{}
			}
			
			GROUP 
			{
			
				STATICTEXT{}
				SEPARATOR BUMP{SCALE_H;}
				
				LONG BUMP_TYPE
				{
					CYCLE
					{
						BUMP_MAP;
						NORMAL_MAP_DIRECTX;
						NORMAL_MAP_OPENGL;
						DISPLACEMENT_0;
						DISPLACEMENT_5;
					}
				}
				SHADERLINK BUMP_VALUE{ANIM OFF;}

				REAL BUMP_INTENSITY{MINSLIDER 0; MAXSLIDER 10; CUSTOMGUI REALSLIDER;}
			}
	
		}
		STATICTEXT{}
		SEPARATOR AOV_PAGE{SCALE_H;}
		LINK DL_AOV_GROUP{SCALE_H;}
	}
	
	INCLUDE Massign;

}