CONTAINER dl_open_vdb_node
{
	NAME dl_open_vdb_node;

	GROUP OPENVDB_NODE
	{
		GROUP FILE_GROUP
		{
			DEFAULT 1;
			FILENAME FILE_FILENAME
			{
			  
			}
			
			BOOL FILE_USE_FILE_SEQUENCE {}
			LONG FILE_INDEX_RANGE_START{}
			LONG FILE_INDEX_RANGE_END{}
			
			LONG FILE_OUTSIDE_RANGE
			{
				
				CYCLE
				{
					FILE_OUTSIDE_RANGE_HOLD_FIRST;
					FILE_OUTSIDE_RANGE_REPEAT;
				}
			}
			
			LONG FILE_START_OFFSET {}
			LONG FILE_INCREMENT {}
			BOOL FILE_CONFINE_TO_FRAME_RANGE {}
			GROUP
			{
				LAYOUTGROUP; COLUMNS 2;
				GROUP
				{
					LONG FILE_FRAME_RANGE_START {}
				}

				GROUP
				{
					LONG FILE_FRAME_RANGE_END {}
				}
			}
			
		}
		
		GROUP GRIDS_GROUP
		{
			DEFAULT 1;
			LONG GRIDS_GROUP_SMOKE
			{
				
				CYCLE
				{
					GRIDS_GROUP_SMOKE_NONE;
				}
			}
			
			LONG GRIDS_GROUP_SMOKE_COLOR
			{
				
				CYCLE
				{
					GRIDS_GROUP_SMOKE_COLOR_NONE;
				}
			}
			
			LONG GRIDS_GROUP_TEMPERATURE
			{
				
				CYCLE
				{
					GRIDS_GROUP_TEMPERATURE_NONE;
				}
			}
			
			LONG GRIDS_GROUP_EMISSION_INTENSITY
			{
				
				CYCLE
				{
					GRIDS_GROUP_EMISSION_INTENSITY_NONE;
				}
			}
			
			LONG GRIDS_GROUP_VELOCITY
			{
				
				CYCLE
				{
					GRIDS_GROUP_VELOCITY_NONE;
				}
			}
			REAL GRIDS_GROUP_VELOCITY_SCALE{}
		}
		
		GROUP OBJECT_DISPLAY_GROUP
		{
			DEFAULT 1;
			BOOL OBJECT_DISPLAY_DRAW_POINTS{}
		}
	
		GROUP VISIBILITY_GROUP
		{
			DEFAULT 1;
			BOOL VISIBILITY_VISSIBLE_IN_DIFFUSE{}
		}
	}
	
	GROUP OPENVDB_SHADER_GROUP
	{
		GROUP SCATTERING_GROUP
		{
			DEFAULT 1;
			REAL SCATTERING_DENSITY{}
			COLOR SCATTERING_COLOR {}
			SHADERLINK SCATTERING_COLOR_SHADER{}	
			REAL SCATTERING_ANISOTROPY{MIN -1; MAX 1; MINSLIDER -1; MAXSLIDER 1; STEP 0.005; CUSTOMGUI REALSLIDER;}
			//SHADERLINK SCATTERING_ANISOTROPY_SHADER{}
			REAL SCATTERING_MULTIPLE_SCATTERING{MIN 0; MAX 1; MINSLIDER 0; MAXSLIDER 1; STEP 0.005; CUSTOMGUI REALSLIDER;}
		}
		
		GROUP DENSITY_RAMP_GROUP
		{
			DEFAULT 1;
			BOOL DENSITY_RAMP_ENABLE{}
			GROUP
			{
				LAYOUTGROUP; COLUMNS 2;
				GROUP
				{
					REAL DENSITY_RAMP_RANGE_START{}
				}

				GROUP
				{
					REAL DENSITY_RAMP_RANGE_END{}
				}
			}
			
			
			SPLINE DENSITY_RAMP_RAMP
			{
			  SHOWGRID_H;
			  SHOWGRID_V;
			  EDIT_H;
			  EDIT_V;
			  NO_FLOATING_WINDOW;
			  NOPRESETS;
			}
		}
		GROUP TRANSPARENCY_GROUP 
		{
			DEFAULT 1;
			COLOR TRANSPARENCY_COLOR {}
			SHADERLINK TRANSPARENCY_COLOR_SHADER {}
			REAL TRANSPARENCY_SCALE{MIN 0; MINSLIDER 0; STEP 0.1; CUSTOMGUI REALSLIDER;}

		}
		
		GROUP EMMISSION_GROUP
		{
			DEFAULT 1;
			REAL EMMISSION_SCALE{MIN 0; MINSLIDER 0; STEP 0.1; CUSTOMGUI REALSLIDER;}
		}
	
		GROUP INTENSITY_GROUP
		{
			DEFAULT 1;
			BOOL INTENSITY_USE_GRID{}
			GROUP
			{
				LAYOUTGROUP; COLUMNS 2;
				GROUP
				{
					REAL INTENSITY_RANGE_START{}
				}

				GROUP
				{
					REAL INTENSITY_RANGE_END{}
				}
			}
			
			SPLINE INTENSITY_RAMP
			{
			  SHOWGRID_H;
			  SHOWGRID_V;
			  EDIT_H;
			  EDIT_V;
			  NO_FLOATING_WINDOW;
			  NOPRESETS;
			}
		}
		
		GROUP BLACKBODY_GROUP
		{
			DEFAULT 1;
			REAL BLACKBODY_INTENSITY{}
			LONG BLACKBODY_MODE
			{
				
				CYCLE
				{
					BLACKBODY_PHYSICALLY_CORRECT;
					BLACKBODY_NORMALIZED;
					BLACKBODY_ARTISTIC;
				}
			}
			REAL BLACKBODY_KELVIN{ MIN 0; MINSLIDER 5000; STEP 10; CUSTOMGUI REALSLIDER;}
			COLOR BLACKBODY_TINT{}
			GROUP
			{
				LAYOUTGROUP; COLUMNS 2;
				GROUP
				{
					REAL BLACKBODY_RANGE_START {}
				}

				GROUP
				{
					REAL BLACKBODY_RANGE_END {}
				}
			}
			
			SPLINE BLACKBODY_RAMP
			{
			  SHOWGRID_H;
			  SHOWGRID_V;
			  EDIT_H;
			  EDIT_V;
			  NO_FLOATING_WINDOW;
			}
		}
		
		GROUP RAMP_GROUP
		{
			DEFAULT 1;
			REAL RAMP_INTENSITY {}
			COLOR RAMP_TINT {}
			GROUP
			{
				LAYOUTGROUP; COLUMNS 2;
				GROUP
				{
					REAL RAMP_RANGE_START {}
				}

				GROUP
				{
					REAL RAMP_RANGE_END {}
				}
			}
			GRADIENT EMISSION_RAMP
			{ COLOR;}
		}
	}
}

