CONTAINER dl_random_material
{
	NAME dl_random_material;

	INCLUDE Mpreview;
	INCLUDE Mbase;
	
	GROUP Obaselist
	{
		BOOL SHADER_PAGE { HIDDEN; PAGE; PARENTMSG SHADER_GROUP; }
	}

	GROUP SHADER_GROUP
	{
		SEPARATOR{LINE;}

		GROUP
		{
			COLUMNS 2;

			SEPARATOR INPUT{}
			STATICTEXT{}
		
			LINK INPUT_MATERIAL1{SCALE_H;}
			SEPARATOR{}
			
			REAL INPUT_IMPORTANCE1{SCALE_H;MIN 0; MINSLIDER 0; MAXSLIDER 1; STEP 0.001; CUSTOMGUI REALSLIDER;}
			SHADERLINK INPUT_IMPORTANCE1_SHADER{ANIM OFF;HIDDEN;}
			SHADERLINK INPUT_IMPORTANCE1_SHADER_TEMP{ANIM OFF;HIDDEN;}
			POPUP POPUP_INPUT_IMPORTANCE1{SCALE_V;}
			
			STATICTEXT {}
			STATICTEXT {}
			
			LINK INPUT_MATERIAL2{SCALE_H;}
			SEPARATOR{}
			
			REAL INPUT_IMPORTANCE2{SCALE_H;MIN 0; MINSLIDER 0; MAXSLIDER 1; STEP 0.001; CUSTOMGUI REALSLIDER;}
			SHADERLINK INPUT_IMPORTANCE2_SHADER{ANIM OFF;HIDDEN;}
			SHADERLINK INPUT_IMPORTANCE2_SHADER_TEMP{ANIM OFF;HIDDEN;}
			POPUP POPUP_INPUT_IMPORTANCE2{SCALE_V;}
			
			STATICTEXT {}
			STATICTEXT {}
			
			LINK INPUT_MATERIAL3{SCALE_H;}
			SEPARATOR{}
			
			REAL INPUT_IMPORTANCE3{SCALE_H;MIN 0; MINSLIDER 0; MAXSLIDER 1; STEP 0.001; CUSTOMGUI REALSLIDER;}
			SHADERLINK INPUT_IMPORTANCE3_SHADER{ANIM OFF;HIDDEN;}
			SHADERLINK INPUT_IMPORTANCE3_SHADER_TEMP{ANIM OFF;HIDDEN;}
			POPUP POPUP_INPUT_IMPORTANCE3{SCALE_V;}
			
			STATICTEXT {}
			STATICTEXT {}
			
			LINK INPUT_MATERIAL4{SCALE_H;}
			SEPARATOR{}
			
			REAL INPUT_IMPORTANCE4{SCALE_H;MIN 0; MINSLIDER 0; MAXSLIDER 1; STEP 0.001; CUSTOMGUI REALSLIDER;}
			SHADERLINK INPUT_IMPORTANCE4_SHADER{ANIM OFF;HIDDEN;}
			SHADERLINK INPUT_IMPORTANCE4_SHADER_TEMP{ANIM OFF;HIDDEN;}
			POPUP POPUP_INPUT_IMPORTANCE4{SCALE_V;}
			
			STATICTEXT {}
			STATICTEXT {}
			
			LINK INPUT_MATERIAL5{SCALE_H;}
			SEPARATOR{}
			
			REAL INPUT_IMPORTANCE5{SCALE_H;MIN 0; MINSLIDER 0; MAXSLIDER 1; STEP 0.001; CUSTOMGUI REALSLIDER;}
			SHADERLINK INPUT_IMPORTANCE5_SHADER{ANIM OFF;HIDDEN;}			
			SHADERLINK INPUT_IMPORTANCE5_SHADER_TEMP{ANIM OFF;HIDDEN;}			
			POPUP POPUP_INPUT_IMPORTANCE5{SCALE_V;}
			
			STATICTEXT{}
			STATICTEXT{}
			SEPARATOR RANDOM{}
			STATICTEXT{}
			
			LONG SEED{}
		}
		STATICTEXT{}
		SEPARATOR AOV_PAGE{SCALE_H;}
		LINK DL_AOV_GROUP{SCALE_H;}
	}
}