CONTAINER dl_substance	
{
	NAME dl_substance;
	
	INCLUDE Mpreview;
	INCLUDE Mbase;
	
	GROUP Obaselist
	{
		BOOL MAIN_GROUP_PAGE { HIDDEN; PAGE; PARENTMSG MAIN_GROUP; }
	}
	GROUP MAIN_GROUP
	{
		SEPARATOR{LINE;}
		GROUP 
		{
			COLUMNS 2;
			COLOR SUBSTANCE_COLOR{SCALE_H;}
			SHADERLINK SUBSTANCE_COLOR_SHADER{SCALE_H;ANIM OFF;HIDDEN;}
			SHADERLINK SUBSTANCE_COLOR_SHADER_TEMP{SCALE_H;ANIM OFF;HIDDEN;}
			POPUP POPUP_SUBSTANCE_COLOR{SCALE_V;}

			REAL SUBSTANCE_ROUGHNESS{SCALE_H;MIN 0; MAX 1; MINSLIDER 0; MAXSLIDER 1; STEP 0.001; CUSTOMGUI REALSLIDER;}
			SHADERLINK SUBSTANCE_ROUGHNESS_SHADER{SCALE_H;ANIM OFF;HIDDEN;}
			SHADERLINK SUBSTANCE_ROUGHNESS_SHADER_TEMP{SCALE_H;ANIM OFF;HIDDEN;}
			POPUP POPUP_SUBSTANCE_ROUGHNESS{SCALE_V;}
			
			REAL SUBSTANCE_SPECULAR_LEVEL{SCALE_H;MIN 0; MAX 1; MINSLIDER 0; MAXSLIDER 1; STEP 0.001; CUSTOMGUI REALSLIDER;}
			SHADERLINK SUBSTANCE_SPECULAR_LEVEL_SHADER{SCALE_H;ANIM OFF;HIDDEN;}
			SHADERLINK SUBSTANCE_SPECULAR_LEVEL_SHADER_TEMP{SCALE_H;ANIM OFF;HIDDEN;}
			POPUP POPUP_SUBSTANCE_SPECULAR_LEVEL{SCALE_V;}
					
			REAL SUBSTANCE_METALLIC{SCALE_H;MIN 0; MAX 1; MINSLIDER 0; MAXSLIDER 1; STEP 0.001; CUSTOMGUI REALSLIDER;}
			SHADERLINK SUBSTANCE_METALLIC_SHADER{SCALE_H;ANIM OFF;HIDDEN;}
			SHADERLINK SUBSTANCE_METALLIC_SHADER_TEMP{SCALE_H;ANIM OFF;HIDDEN;}
			POPUP POPUP_SUBSTANCE_METALLIC{SCALE_V;}
			
			REAL SUBSTANCE_OPACITY{SCALE_H;}
			SHADERLINK SUBSTANCE_OPACITY_SHADER{SCALE_H;ANIM OFF;HIDDEN;}
			SHADERLINK SUBSTANCE_OPACITY_SHADER_TEMP{SCALE_H;ANIM OFF;HIDDEN;}
			POPUP POPUP_SUBSTANCE_OPACITY{SCALE_V;}
		}	
		STATICTEXT{}
		SEPARATOR EMISSIVE_TEXT{}
		
	
		GROUP 
		{
			COLUMNS 2;
			COLOR EMISSIVE_COLOR{SCALE_H;}
			SHADERLINK EMISSIVE_COLOR_SHADER{SCALE_H;ANIM OFF;HIDDEN;}
			SHADERLINK EMISSIVE_COLOR_SHADER_TEMP{SCALE_H;ANIM OFF;HIDDEN;}
			POPUP POPUP_EMISSIVE_COLOR{SCALE_V;}
			
			REAL EMISSIVE_INTENSITY{MIN 0; MINSLIDER 1; MAXSLIDER 100; STEP 0.1; CUSTOMGUI REALSLIDER;}
		}
		
		STATICTEXT{}
		SEPARATOR BUMP{}
		
		GROUP 
		{
			LONG BUMP_TYPE
			{
				CYCLE
				{
					BUMP_MAP;
					NORMAL_MAP_DIRECTX;
					NORMAL_MAP_OPENGL;
					DISPLACEMENT_0;
					DISPLACEMENT_5;
				}
			}
			SHADERLINK BUMP_VALUE{ANIM OFF;}
			REAL BUMP_INTENSITY{MINSLIDER 0; MAXSLIDER 10; CUSTOMGUI REALSLIDER;}
		}
		
		SEPARATOR { LINE; }
	
		GROUP
		{
			LAYOUTGROUP; COLUMNS 2;
			GROUP
			{
				STATICTEXT{JOINENDSCALE;}
				STATICTEXT{}
				STATICTEXT{}
				STATICTEXT{}
			}
			GROUP
			{
				BUTTON ASSIGN_TEXTURES {ANIM OFF;}
				STATICTEXT ROW1 {ANIM OFF;}
				STATICTEXT ROW2 {ANIM OFF;}
				STATICTEXT ROW3 {ANIM OFF;}
			}
		}
		GROUP
		{
			STATICTEXT{}
			SEPARATOR AOV_PAGE{SCALE_H;}
			LINK DL_AOV_GROUP{SCALE_H;}
		}
	}
	INCLUDE Massign;

}