CONTAINER dl_shadow_matte	
{
	NAME dl_shadow_matte;
	
	INCLUDE Mpreview;
	INCLUDE Mbase;
	
	GROUP Obaselist
	{
		BOOL SHADOW_MATTE_PAGE { HIDDEN; PAGE; PARENTMSG SHADOW_MATTE_GROUP; }
	}
	
	GROUP SHADOW_MATTE_GROUP
	{
		SEPARATOR {LINE;}

		GROUP
		{
			COLUMNS 2;
			SEPARATOR SHADOW_MATTE_TAB{SCALE_H;}
			STATICTEXT{}

			REAL SHADOW_MATTE_OPACITY{SCALE_H;MIN 0; MAX 1; MINSLIDER 0; MAXSLIDER 1; STEP 0.01; CUSTOMGUI REALSLIDER;}
			SHADERLINK SHADOW_MATTE_OPACITY_SHADER{SCALE_H;ANIM OFF;HIDDEN;}
			SHADERLINK SHADOW_MATTE_OPACITY_SHADER_TEMP{ANIM OFF;HIDDEN;}
			POPUP POPUP_SHADOW_MATTE_OPACITY{SCALE_V;}
			
			COLOR SHADOW_MATTE_COLOR{SCALE_H;}
			SHADERLINK SHADOW_MATTE_COLOR_SHADER{SCALE_H;ANIM OFF;HIDDEN;}
			SHADERLINK SHADOW_MATTE_COLOR_SHADER_TEMP{ANIM OFF;HIDDEN;}
			POPUP POPUP_SHADOW_MATTE_COLOR{SCALE_V;}

			STATICTEXT{}
			STATICTEXT{}
			SEPARATOR SHADOW_DIFFUSE_TAB{}
			STATICTEXT{}
		
			COLOR SHADOW_DIFFUSE_COLOR{SCALE_H;}
			SHADERLINK SHADOW_DIFFUSE_COLOR_SHADER{SCALE_H;ANIM OFF;HIDDEN;}
			SHADERLINK SHADOW_DIFFUSE_COLOR_SHADER_TEMP{ANIM OFF;HIDDEN;}
			POPUP POPUP_SHADOW_DIFFUSE_COLOR{SCALE_V;}

			REAL SHADOW_DIFFUSE_INTENSITY{SCALE_H;MIN 0; MAX 1; MINSLIDER 0; MAXSLIDER 1; STEP 0.01; CUSTOMGUI REALSLIDER;}
			SHADERLINK SHADOW_DIFFUSE_INTENSITY_SHADER{SCALE_H;ANIM OFF;HIDDEN;}
			SHADERLINK SHADOW_DIFFUSE_INTENSITY_SHADER_TEMP{ANIM OFF;HIDDEN;}
			POPUP POPUP_SHADOW_DIFFUSE_INTENSITY{SCALE_V;}
			
			REAL SHADOW_DIFFUSE_ROUGHNESS{SCALE_H;MIN 0; MAX 1; MINSLIDER 0; MAXSLIDER 1; STEP 0.001; CUSTOMGUI REALSLIDER;}
			SHADERLINK SHADOW_DIFFUSE_ROUGHNESS_SHADER{SCALE_H;ANIM OFF;HIDDEN;}
			SHADERLINK SHADOW_DIFFUSE_ROUGHNESS_SHADER_TEMP{ANIM OFF;HIDDEN;}
			POPUP POPUP_SHADOW_DIFFUSE_ROUGHNESS{SCALE_V;}
		}
		STATICTEXT{}
		SEPARATOR AOV_PAGE{SCALE_H;}
		LINK DL_AOV_GROUP{SCALE_H;}
	}
	INCLUDE Massign;
}