CONTAINER dl_texture
{
	NAME dl_texture;

	GROUP SHADER_GROUP
	{	
		COLUMNS 2;

		STRING TEXTURE_FILE{}
		BUTTON TEXTURE_FILE_BUTTON{};
		
		LONG TEXTURE_COLOR_SPACE
		{
			SCALE_H;
			CYCLE
			{
				TEXTURE_COLOR_SPACE_LINEAR;
				TEXTURE_COLOR_SPACE_SRGB;
				TEXTURE_COLOR_SPACE_REC;
			}
		}
		SEPARATOR{}
	
		COLOR TEXTURE_DEFAULT_COLOR{SCALE_H;}
		SHADERLINK TEXTURE_DEFAULT_COLOR_SHADER{ANIM OFF;HIDDEN;}
		SHADERLINK TEXTURE_DEFAULT_COLOR_SHADER_TEMP{ANIM OFF;HIDDEN;}
		POPUP POPUP_TEXTURE_DEFAULT_COLOR{SCALE_V;}
		
		GROUP
		{	
			COLUMNS 2;
			STATICTEXT{}
			STATICTEXT{}
			SEPARATOR COLOR_CORRECT_GROUP{}
			STATICTEXT{}	
		}
		
		LONG COLOR_CORRECT_TOON
		{
			SCALE_H;
			CYCLE
			{
				COLOR_CORRECT_TOON_OFF;
				COLOR_CORRECT_TOON_NORMALIZE;
			}
		}
		SEPARATOR{}
			

		COLOR COLOR_CORRECT_COL_GAIN{SCALE_H;}
		SHADERLINK COLOR_CORRECT_COL_GAIN_SHADER{ANIM OFF;HIDDEN;}
		SHADERLINK COLOR_CORRECT_COL_GAIN_SHADER_TEMP{ANIM OFF;HIDDEN;}
		POPUP POPUP_COLOR_CORRECT_COL_GAIN{SCALE_V;}
		
		COLOR COLOR_CORRECT_COL_OFFSET{SCALE_H;}
		SHADERLINK COLOR_CORRECT_COL_OFFSET_SHADER{ANIM OFF;HIDDEN;}
		SHADERLINK COLOR_CORRECT_COL_OFFSET_SHADER_TEMP{ANIM OFF;HIDDEN;}
		POPUP POPUP_COLOR_CORRECT_COL_OFFSET{SCALE_V;}
		
		REAL COLOR_CORRECT_ALPHA_GAIN{SCALE_H;MIN 0;MINSLIDER 0; MAXSLIDER 1; STEP 0.01; CUSTOMGUI REALSLIDER;}
		SHADERLINK COLOR_CORRECT_ALPHA_GAIN_SHADER{ANIM OFF;HIDDEN;}
		SHADERLINK COLOR_CORRECT_ALPHA_GAIN_SHADER_TEMP{ANIM OFF;HIDDEN;}
		POPUP POPUP_COLOR_CORRECT_ALPHA_GAIN{SCALE_V;}
					
		REAL COLOR_CORRECT_ALPHA_OFFSET{SCALE_H;MIN 0;MINSLIDER 0; MAXSLIDER 1; STEP 0.01; CUSTOMGUI REALSLIDER;}
		SHADERLINK COLOR_CORRECT_ALPHA_OFFSET_SHADER{ANIM OFF;HIDDEN;}
		SHADERLINK COLOR_CORRECT_ALPHA_OFFSET_SHADER_TEMP{ANIM OFF;HIDDEN;}
		POPUP POPUP_COLOR_CORRECT_ALPHA_OFFSET{SCALE_V;}
		
		GROUP
		{
			BOOL COLOR_CORRECT_IS_ALPHA_LUMIN{SCALE_H;}
		}
		
		GROUP
		{
			BOOL COLOR_CORRECT_INVERT{SCALE_H;}
		}
		
		GROUP
		{	
			COLUMNS 2;
			STATICTEXT{}
			STATICTEXT{}
			SEPARATOR TILE_REMOVAL_GROUP{}
			STATICTEXT{}	
		}
		
		GROUP
		{
			BOOL TILE_REMOVAL_BOOL{SCALE_H;}
		}				
	
		REAL TILE_REMOVAL_SOFTNESS{SCALE_H;MIN 0; MINSLIDER 0; MAXSLIDER 1; STEP 0.01; CUSTOMGUI REALSLIDER;}
		SHADERLINK TILE_REMOVAL_SOFTNESS_SHADER{ANIM OFF;HIDDEN;}
		SHADERLINK TILE_REMOVAL_SOFTNESS_SHADER_TEMP{ANIM OFF;HIDDEN;}
		POPUP POPUP_TILE_REMOVAL_SOFTNESS{SCALE_V;}

		REAL TILE_REMOVAL_OFFSET{SCALE_H;MIN 0;MINSLIDER 0; MAXSLIDER 1; STEP 0.01; CUSTOMGUI REALSLIDER;}
		SHADERLINK TILE_REMOVAL_OFFSET_SHADER{ANIM OFF;HIDDEN;}
		SHADERLINK TILE_REMOVAL_OFFSET_SHADER_TEMP{ANIM OFF;HIDDEN;}
		POPUP POPUP_TILE_REMOVAL_OFFSET{SCALE_V;}
		
		REAL TILE_REMOVAL_ROTATION{SCALE_H;MIN 0;MINSLIDER 0; MAXSLIDER 1; STEP 0.01; CUSTOMGUI REALSLIDER;}
		SHADERLINK TILE_REMOVAL_ROTATION_SHADER{ANIM OFF;HIDDEN;}
		SHADERLINK TILE_REMOVAL_ROTATION_SHADER_TEMP{ANIM OFF;HIDDEN;}
		POPUP POPUP_TILE_REMOVAL_ROTATION{SCALE_V;}
		
		REAL TILE_REMOVAL_SCALE{SCALE_H;MIN 0;MINSLIDER 0; MAXSLIDER 1; STEP 0.01; CUSTOMGUI REALSLIDER;}
		SHADERLINK TILE_REMOVAL_SCALE_SHADER{ANIM OFF;HIDDEN;}
		SHADERLINK TILE_REMOVAL_SCALE_SHADER_TEMP{ANIM OFF;HIDDEN;}
		POPUP POPUP_TILE_REMOVAL_SCALE{SCALE_V;}
		
			
		GROUP
		{	
			COLUMNS 2;
			STATICTEXT{}
			STATICTEXT{}
			SEPARATOR IMAGE_SEQUENCE_GROUP{}
			STATICTEXT{}	
		}
		
		BOOL USE_IMAGE_SEQUENCE{}
		STATICTEXT{}				

		LONG IMAGE_SEQUENCE_FRAME{SCALE_H;MIN 0;}
		STATICTEXT{}	

		LONG IMAGE_SEQUENCE_FRAME_OFFSET{SCALE_H;MIN 0;}
		STATICTEXT{}	
		
			
		GROUP
		{	
			COLUMNS 2;
			STATICTEXT{}
			STATICTEXT{}
			SEPARATOR FILTERING_GROUP{}
			STATICTEXT{}	
		}
		
		REAL FILTER_VAL{SCALE_H;MIN 0;MINSLIDER 0; MAXSLIDER 1; STEP 0.01; CUSTOMGUI REALSLIDER;}
		STATICTEXT{}
			
		REAL BLUR_VAL{SCALE_H;MIN 0;MINSLIDER 0; MAXSLIDER 1; STEP 0.01; CUSTOMGUI REALSLIDER;}
		STATICTEXT{}
		
	}
}

