CONTAINER dl_thin
{
	NAME dl_thin;
	
	INCLUDE Mpreview;
	INCLUDE Mbase;
	SCALE_H;
	
	GROUP Obaselist
	{
		BOOL THIN_MATERIAL_PAGE { HIDDEN; PAGE; PARENTMSG THIN_MATERIAL;}
	}
	
	GROUP THIN_MATERIAL
	{
		SEPARATOR {LINE;}
		GROUP
		{
			COLUMNS 2;
			SEPARATOR FRONT_LAYER{SCALE_H;}
			STATICTEXT{}
		
			COLOR FRONT_COLOR{SCALE_H;}
			SHADERLINK FRONT_COLOR_SHADER{ANIM ON; HIDDEN;}
			SHADERLINK FRONT_COLOR_SHADER_TEMP{ANIM ON; HIDDEN;}
			POPUP POPUP_FRONT_COLOR{SCALE_V;}

			REAL FRONT_ROUGHNESS{SCALE_H; MIN 0; MAX 1; MINSLIDER 0; MAXSLIDER 1; STEP 0.001; CUSTOMGUI REALSLIDER;}
			SHADERLINK FRONT_ROUGHNESS_SHADER{ANIM ON; HIDDEN;}
			SHADERLINK FRONT_ROUGHNESS_SHADER_TEMP{ANIM ON; HIDDEN;}
			POPUP POPUP_FRONT_ROUGHNESS{SCALE_V;}

			REAL FRONT_SPECULAR{SCALE_H; MIN 0 ; MINSLIDER 0; MAXSLIDER 10; STEP 0.01; CUSTOMGUI REALSLIDER;}
			SHADERLINK FRONT_SPECULAR_SHADER{ANIM ON; HIDDEN;}
			SHADERLINK FRONT_SPECULAR_SHADER_TEMP{ANIM ON; HIDDEN;}
			POPUP POPUP_FRONT_SPECULAR{SCALE_V;}	
			
			STATICTEXT{SCALE_H;}
			STATICTEXT{}
			SEPARATOR BACK_LAYER{SCALE_H;}
			STATICTEXT{}
	
			
			COLOR BACK_COLOR{SCALE_H;}
			SHADERLINK BACK_COLOR_SHADER{ANIM ON; HIDDEN;}
			SHADERLINK BACK_COLOR_SHADER_TEMP{ANIM ON; HIDDEN;}
			POPUP POPUP_BACK_COLOR{SCALE_V;}
		
			REAL BACK_ROUGHNESS{SCALE_H; MIN 0; MAX 1; MINSLIDER 0; MAXSLIDER 1; STEP 0.001; CUSTOMGUI REALSLIDER;}
			SHADERLINK BACK_ROUGHNESS_SHADER{ANIM OFF; HIDDEN;}
			SHADERLINK BACK_ROUGHNESS_SHADER_TEMP{ANIM OFF; HIDDEN;}
			POPUP POPUP_BACK_ROUGHNESS{SCALE_V;}

			REAL BACK_SPECULAR{SCALE_H; MIN 0; MINSLIDER 0; MAXSLIDER 10; STEP 0.01; CUSTOMGUI REALSLIDER;}
			SHADERLINK BACK_SPECULAR_SHADER{ANIM OFF; HIDDEN;}
			SHADERLINK BACK_SPECULAR_SHADER_TEMP{ANIM OFF; HIDDEN;}
			POPUP POPUP_BACK_SPECULAR{SCALE_V;}
			
		
			STATICTEXT{SCALE_H;}
			STATICTEXT{}
			SEPARATOR TRANSLUCENCY_LAYER{SCALE_H;}
			STATICTEXT{}
			
			
			REAL TRANSLUCENCY_VALUE{SCALE_H; MIN 0; MAX 1; MINSLIDER 0; MAXSLIDER 1; STEP 0.001; CUSTOMGUI REALSLIDER;}
			SHADERLINK TRANSLUCENCY_VALUE_SHADER{ANIM OFF; HIDDEN;SCALE_H;}
			SHADERLINK TRANSLUCENCY_VALUE_SHADER_TEMP{ANIM OFF; HIDDEN;SCALE_H;}
			POPUP POPUP_TRANSLUCENCY_VALUE{SCALE_V;}
			
			REAL TRANSLUCENCY_OPACITY{SCALE_H;MIN 0; MAX 1; MINSLIDER 0; MAXSLIDER 1; STEP 0.001; CUSTOMGUI REALSLIDER;}
			SHADERLINK TRANSLUCENCY_OPACITY_SHADER{ANIM OFF;HIDDEN;SCALE_H;}
			SHADERLINK TRANSLUCENCY_OPACITY_SHADER_TEMP{ANIM OFF;HIDDEN;SCALE_H;}
			POPUP POPUP_TRANSLUCENCY_OPACITY{SCALE_V;}

	
			STATICTEXT{}
			STATICTEXT{}
			SEPARATOR BUMP{SCALE_H;}
			STATICTEXT{}
			
			LONG BUMP_TYPE
			{
				SCALE_H;
				CYCLE
				{
					BUMP_MAP;
					NORMAL_MAP_DIRECTX;
					NORMAL_MAP_OPENGL;
					DISPLACEMENT_0;
					DISPLACEMENT_5;
				}
			}
			SEPARATOR{}
			
			SHADERLINK BUMP_VALUE{ANIM OFF;}
			SEPARATOR{}
							
			REAL BUMP_INTENSITY{MINSLIDER 0; MAXSLIDER 10; CUSTOMGUI REALSLIDER;}
			SEPARATOR{}
		
		}
		STATICTEXT{}
		SEPARATOR AOV_PAGE{SCALE_H;}
		LINK DL_AOV_GROUP{SCALE_H;}
	}
	INCLUDE Massign;
}
