CONTAINER dl_toon_glass
{
	NAME dl_toon_glass;
	
	INCLUDE Mpreview;
	INCLUDE Mbase;
	
	GROUP Obaselist
	{
		BOOL TOON_GLASS_PAGE { HIDDEN; PAGE; PARENTMSG TOON_GLASS_GROUP; }
	}
	
	GROUP TOON_GLASS_GROUP
	{
		SEPARATOR {LINE;}

		GROUP
		{
			COLUMNS 2;
			SEPARATOR REFRACTION_PAGE{SCALE_H;}
			STATICTEXT{}
			
			COLOR REFRACTION_COLOR{SCALE_H;}
			SHADERLINK REFRACTION_COLOR_SHADER{SCALE_H;ANIM OFF;HIDDEN;}
			SHADERLINK REFRACTION_COLOR_SHADER_TEMP{ANIM OFF;HIDDEN;}
			POPUP POPUP_REFRACTION_COLOR{SCALE_V;}
			
			REAL REFRACTION_IOR{SCALE_H;MIN 0; MINSLIDER 0; MAXSLIDER 1; STEP 0.001; CUSTOMGUI REALSLIDER;}
			SHADERLINK REFRACTION_IOR_SHADER{SCALE_H;ANIM OFF;HIDDEN;}
			SHADERLINK REFRACTION_IOR_SHADER_TEMP{ANIM OFF;HIDDEN;}
			POPUP POPUP_REFRACTION_IOR{SCALE_V;}
			
			STATICTEXT{}
			STATICTEXT{}
			SEPARATOR OUTLINES_PAGE{}
			STATICTEXT{}

			BOOL OUTLINES_ENABLE{SCALE_H;}
			STATICTEXT{}

			COLOR OUTLINES_COLOR{SCALE_H;}
			SHADERLINK OUTLINES_COLOR_SHADER{SCALE_H;ANIM OFF;HIDDEN;}
			SHADERLINK OUTLINES_COLOR_SHADER_TEMP{ANIM OFF;HIDDEN;}
			POPUP POPUP_OUTLINES_COLOR{SCALE_V;}

			REAL OUTLINES_OPACITY{SCALE_H;MIN 0; MAX 1; MINSLIDER 0; MAXSLIDER 1; STEP 0.01; CUSTOMGUI REALSLIDER;}
			SHADERLINK OUTLINES_OPACITY_SHADER{SCALE_H;ANIM OFF;HIDDEN;}
			SHADERLINK OUTLINES_OPACITY_SHADER_TEMP{ANIM OFF;HIDDEN;}
			POPUP POPUP_OUTLINES_OPACITY{SCALE_V;}

			REAL OUTLINES_WIDTH{SCALE_H;MIN 0; MAX 10; MINSLIDER 0; MAXSLIDER 10; STEP 0.1; CUSTOMGUI REALSLIDER;}
			SHADERLINK OUTLINES_WIDTH_SHADER{SCALE_H;ANIM OFF;HIDDEN;}
			SHADERLINK OUTLINES_WIDTH_SHADER_TEMP{ANIM OFF;HIDDEN;}
			POPUP POPUP_OUTLINES_WIDTH{SCALE_V;}
		
			LONG OUTLINES_PRIORITY{SCALE_H; MINSLIDER 0; MAXSLIDER 10; CUSTOMGUI LONGSLIDER;}
			SHADERLINK OUTLINES_PRIORITY_SHADER{SCALE_H;ANIM OFF;HIDDEN;}
			SHADERLINK OUTLINES_PRIORITY_SHADER_TEMP{ANIM OFF;HIDDEN;}
			POPUP POPUP_OUTLINES_PRIORITY{SCALE_V;}
		}
		STATICTEXT{}
		SEPARATOR AOV_PAGE{SCALE_H;}
		LINK DL_AOV_GROUP{SCALE_H;}
	}
	INCLUDE Massign;
}