CONTAINER dl_triplanar
{
	NAME dl_triplanar;

	GROUP TRIPLANAR_SHADER
	{	
		COLUMNS 2;
		
		LONG SHADER_MODE
		{
			SCALE_H;
			CYCLE
			{
				MODE_TRIPLANAR;
				MODE_PLANAR;
			}
		}
		STATICTEXT{}
		
		GROUP
		{	
			COLUMNS 2;
			STATICTEXT{}
			STATICTEXT{}
			SEPARATOR TEXTURE_GROUP{}
			STATICTEXT{}	
		}
		
		FILENAME COLOR_TEXTURE{SCALE_H;}
		STATICTEXT{}
		
		LONG COLOR_SPACE
		{
			SCALE_H;
			CYCLE
			{
				COLOR_SPACE_LINEAR;
				COLOR_SPACE_RGB;
				COLOR_SPACE_REC;
			}
		}
		STATICTEXT{}
		
		FILENAME FLOAT_COLOR_TEXTURE{SCALE_H;}
		STATICTEXT{}
		
		LONG FLOAT_COLOR_SPACE
		{
			SCALE_H;
			CYCLE
			{
				FLOAT_COLOR_SPACE_LINEAR;
				FLOAT_COLOR_SPACE_RGB;
				FLOAT_COLOR_SPACE_REC;
			}
		}
		STATICTEXT{}
		FILENAME HEIGHT_COLOR_TEXTURE{SCALE_H;}
		STATICTEXT{}
		
		LONG HEIGHT_COLOR_SPACE
		{
			SCALE_H;
			CYCLE
			{
				HEIGHT_COLOR_SPACE_LINEAR;
				HEIGHT_COLOR_SPACE_RGB;
				HEIGHT_COLOR_SPACE_REC;
			}
		}
		STATICTEXT{}
		
		GROUP
		{	
			COLUMNS 2;
			STATICTEXT{}
			STATICTEXT{}
			SEPARATOR TRANSFORMATION_PAGE{}
			STATICTEXT{}	
		}
		
		REAL TRANSFORMATION_SCALE{SCALE_H;MIN 0;MINSLIDER 0; MAXSLIDER 1; STEP 0.01; CUSTOMGUI REALSLIDER;}
		STATICTEXT{}
		
		LONG TRANSFORMATION_SPACE
		{
			SCALE_H;
			CYCLE
			{
				TRANSFORMATION_SPACE_WORLD;
				TRANSFORMATION_SPACE_OBJECT;
			}
		}
		STATICTEXT{}
		
		GROUP
		{	
			COLUMNS 2;
			STATICTEXT{}
			STATICTEXT{}
			SEPARATOR PLANE_BLENDING_PAGE{}
			STATICTEXT{}	
		}
		
		REAL PLANE_SOFTNESS{SCALE_H;MIN 0;MINSLIDER 0; MAXSLIDER 1; STEP 0.01; CUSTOMGUI REALSLIDER;}
		SHADERLINK PLANE_SOFTNESS_SHADER{ANIM OFF;HIDDEN;}
		SHADERLINK PLANE_SOFTNESS_SHADER_TEMP{ANIM OFF;HIDDEN;}
		POPUP POPUP_PLANE_SOFTNESS{SCALE_V;}

		REAL PLANE_NOISE_INTENSITY{SCALE_H;MIN 0;MINSLIDER 0; MAXSLIDER 1; STEP 0.01; CUSTOMGUI REALSLIDER;}
		SHADERLINK PLANE_NOISE_INTENSITY_SHADER{ANIM OFF;HIDDEN;}
		SHADERLINK PLANE_NOISE_INTENSITY_SHADER_TEMP{ANIM OFF;HIDDEN;}
		POPUP POPUP_PLANE_NOISE_INTENSITY{SCALE_V;}

		REAL PLANE_NOISE_SCALE{SCALE_H;MIN 0;MINSLIDER 0; MAXSLIDER 1; STEP 0.01; CUSTOMGUI REALSLIDER;}
		SHADERLINK PLANE_NOISE_SCALE_SHADER{ANIM OFF;HIDDEN;}
		SHADERLINK PLANE_NOISE_SCALE_SHADER_TEMP{ANIM OFF;HIDDEN;}
		POPUP POPUP_PLANE_NOISE_SCALE{SCALE_V;}

		BOOL PLANE_HEIGHT_BASED_BLENDING{SCALE_H;}
		STATICTEXT{}
		
		GROUP
		{	
			COLUMNS 2;
			STATICTEXT{}
			STATICTEXT{}
			SEPARATOR PLANE_VARIATION_PAGE{}
			STATICTEXT{}	
		}
		REAL PLANE_VARIATION_OFFSET{SCALE_H;MIN 0;MINSLIDER 0; MAXSLIDER 1; STEP 0.01; CUSTOMGUI REALSLIDER;}
		STATICTEXT{}	
		REAL PLANE_VARIATION_ROTATION{SCALE_H;MIN 0;MINSLIDER 0; MAXSLIDER 1; STEP 0.01; CUSTOMGUI REALSLIDER;}
		STATICTEXT{}	
		REAL PLANE_VARIATION_SCALE{SCALE_H;MIN 0;MINSLIDER 0; MAXSLIDER 1; STEP 0.01; CUSTOMGUI REALSLIDER;}
		STATICTEXT{}	
		
		
		GROUP
		{	
			COLUMNS 2;
			STATICTEXT{}
			STATICTEXT{}
			SEPARATOR TILE_REMOVAL_PAGE{}
			STATICTEXT{}	
		}
		BOOL TILE_REMOVAL_ENABLE{SCALE_H;}
		STATICTEXT{}
		
		REAL TILE_REMOVAL_SOFTNESS{SCALE_H;MIN 0;MINSLIDER 0; MAXSLIDER 1; STEP 0.01; CUSTOMGUI REALSLIDER;}
		SHADERLINK TILE_REMOVAL_SOFTNESS_SHADER{ANIM OFF;HIDDEN;}
		SHADERLINK TILE_REMOVAL_SOFTNESS_SHADER_TEMP{ANIM OFF;HIDDEN;}
		POPUP POPUP_TILE_REMOVAL_SOFTNESS{SCALE_V;}		

		REAL TILE_REMOVAL_OFFSET{SCALE_H;MIN 0;MINSLIDER 0; MAXSLIDER 1; STEP 0.01; CUSTOMGUI REALSLIDER;}
		SHADERLINK TILE_REMOVAL_OFFSET_SHADER{ANIM OFF;HIDDEN;}
		SHADERLINK TILE_REMOVAL_OFFSET_SHADER_TEMP{ANIM OFF;HIDDEN;}
		POPUP POPUP_TILE_REMOVAL_OFFSET{SCALE_V;}		

		REAL TILE_REMOVAL_ROTATION{SCALE_H;MIN 0;MINSLIDER 0; MAXSLIDER 1; STEP 0.01; CUSTOMGUI REALSLIDER;}
		SHADERLINK TILE_REMOVAL_ROTATION_SHADER{ANIM OFF;HIDDEN;}
		SHADERLINK TILE_REMOVAL_ROTATION_SHADER_TEMP{ANIM OFF;HIDDEN;}
		POPUP POPUP_TILE_REMOVAL_ROTATION{SCALE_V;}		

		REAL TILE_REMOVAL_SCALE{SCALE_H;MIN 0;MINSLIDER 0; MAXSLIDER 1; STEP 0.01; CUSTOMGUI REALSLIDER;}
		SHADERLINK TILE_REMOVAL_SCALE_SHADER{ANIM OFF;HIDDEN;}
		SHADERLINK TILE_REMOVAL_SCALE_SHADER_TEMP{ANIM OFF;HIDDEN;}
		POPUP POPUP_TILE_REMOVAL_SCALE{SCALE_V;}		

	}
}

