DIALOG light_filters
{
    FIT_H; FIT_V; SCALE_V; SCALE_H;

	GROUP
	{		
		COLUMNS 1;
		FIT_H; SCALE_H;
		BORDERSIZE 10,0,10,0;
		GROUP
		{
			FIT_H; SCALE_H;
			TREEVIEW DL_LIGHT_FILTERS_TREE {FIT_H;SCALE_H; SIZE -300,-150; BORDER; HIDE_LINES;};
		}
		
		GROUP
		{
			BORDERSIZE 0,10,0,0;
			CENTER_H;
			BUTTON DL_ADD_LIGHT_FILTER {NAME DL_LIGHTS_REFRESH_NAME;};
		}
	}
}